…
### Which are the incidents that have been the most common?

```r
crime.incidents <- Pittsburgh_crime_stats %>% 
  na.omit() %>%
  group_by(OFFENSES) %>%
    count() %>% 
  arrange(-n) 

crime.incidents
```

```
## # A tibble: 9,062 x 2
## # Groups:   OFFENSES [9,062]
##    OFFENSES                                                                    n
##    <fct>                                                                   <int>
##  1 2701 Simple Assault.                                                     2205
##  2 9501 Bench Warrant                                                       1696
##  3 9015 Failure To Appear/Arrest on Attachment Order                        1585
##  4 13(a)(31) Marijuana: Possession Small Amount                              805
##  5 13(a)(32) Paraphernalia - Use or Possession                               740
##  6 13(a)(16) Possession of Controlled Substance / 13(a)(32) Paraphernalia~   582
##  7 2701(a)(1) Simple Assault - Intent., Know., Reckless.Cause Bod. Injury    557
##  8 13(a)(16) Possession of Controlled Substance                              491
##  9 3929 Retail Theft.                                                        400
## 10 2702 Aggravated Assault.                                                  396
## # ... with 9,052 more rows
```
…
